<?xml version="1.0" encoding="UTF-8" standalone="no"?>
<svg
   xmlns:dc="http://purl.org/dc/elements/1.1/"
   xmlns:cc="http://creativecommons.org/ns#"
   xmlns:rdf="http://www.w3.org/1999/02/22-rdf-syntax-ns#"
   xmlns:svg="http://www.w3.org/2000/svg"
   xmlns="http://www.w3.org/2000/svg"
   id="svg8"
   version="1.1"
   viewBox="0 0 345.31223 345.31223"
   height="345.31223mm"
   width="345.31223mm">
  <defs
     id="defs2">
    <linearGradient
       gradientTransform="matrix(4.3493266,0,0,4.3493266,-1291.3105,-2248.6416)"
       id="0"
       x1="342.01001"
       y1="550.65997"
       x2="341.07999"
       y2="511.10001"
       gradientUnits="userSpaceOnUse">
      <stop
         stop-color="#197cf1"
         id="stop21" />
      <stop
         offset="1"
         stop-color="#20bcfa"
         id="stop23" />
    </linearGradient>
  </defs>
  <metadata
     id="metadata5">
    <rdf:RDF>
      <cc:Work
         rdf:about="">
        <dc:format>image/svg+xml</dc:format>
        <dc:type
           rdf:resource="http://purl.org/dc/dcmitype/StillImage" />
        <dc:title></dc:title>
      </cc:Work>
    </rdf:RDF>
  </metadata>
  <g
     transform="translate(16.036167,18.756784)"
     id="layer1">
    <rect
       y="-18.756784"
       x="-16.036167"
       height="345.31223"
       width="345.31223"
       id="rect919"
       style="fill:#ffffff;fill-opacity:1;stroke:none;stroke-width:8.7489996;stroke-linecap:round;stroke-miterlimit:4;stroke-dasharray:none;stroke-opacity:1" />
    <path
       id="rect870"
       d="M 9.0714283,92.89286 44.60119,74.750003 73.989158,75.264537 92.226186,84.577384 195.03571,192.67857 108.85005,293.5817 93.831016,266.30558 18.898809,184.36309 -2.7142857e-7,129.17857 Z"
       style="fill:#ffffff;fill-opacity:1;stroke:none;stroke-width:8.7489996;stroke-linecap:round;stroke-miterlimit:4;stroke-dasharray:none;stroke-opacity:1" />
    <g
       style="fill:#000000"
       id="layer1-3"
       transform="matrix(0.28221793,0,0,0.28221793,297.08955,225.3709)">
      <path
         style="fill:#000000;fill-rule:evenodd"
         id="path4730"
         d="m -674.96,-334.97 c 0,0 29.902,-77.023 56.392,-107.68 19.488,-22.556 44.341,-42.369 72.359,-52.546 35.257,-12.806 75.179,-13.356 112.27,-7.7301 32.018,4.8572 63.943,16.706 90.584,35.119 25.986,17.961 47.826,42.994 63.274,70.548 10.908,19.455 16.369,41.978 19.193,64.103 3.161,24.766 2.7048,50.491 -2.772,74.85 -8.1265,36.144 -24.41,70.582 -43.822,102.14 -26.517,43.104 -63.53,78.868 -97.543,116.34 -37.733,41.573 -79.397,79.422 -118.01,120.18 -21.171,22.345 -42.726,44.406 -62.304,68.16 -29.616,35.934 -83.212,112.21 -83.212,112.21 0,0 -47.874,-75.289 -75.323,-110.37 -35.655,-45.562 -76.026,-87.264 -115.64,-129.43 -33.315,-35.464 -69.467,-68.202 -102.57,-103.86 -27.994,-30.157 -45.556,-54.179 -66.184,-89.782 -20.149,-34.777 -45.478,-78 -54.367,-117.2 -5.1103,-22.534 -10.316,-45.904 -7.8237,-68.876 3.7658,-34.713 15.551,-69.397 33.867,-99.123 16.907,-27.44 40.642,-51.505 67.668,-69.066 26.16,-16.997 56.849,-28.033 87.696,-32.688 29.997,-4.5268 61.514,-2.4821 90.86,5.2053 25.833,6.7672 50.829,18.889 71.958,35.22 26.056,20.139 64.394,74.924 64.394,74.924 0,0 -42.292,-40.548 -67.896,-53.978 -25.729,-13.496 -54.357,-24.965 -83.409,-25.297 -35.393,-0.40348 -71.189,11.599 -102.29,28.494 -24.974,13.565 -49.297,32.064 -63.901,56.445 -18.345,30.624 -25.319,68.531 -24.636,104.22 0.7206,37.647 15.009,74.391 30.173,108.86 21.193,48.168 52.748,91.295 83.668,133.88 33.559,46.216 74.915,86.302 110.06,131.32 18.342,23.497 36.18,47.445 52.546,72.359 24.201,36.841 67.343,113.81 67.343,113.81 0,0 62.659,-82.174 95.65,-121.92 39.855,-48.015 84.216,-92.204 123.49,-140.7 29.113,-35.949 61.13,-70.459 82.998,-111.22 19.585,-36.51 34.068,-76.338 41.878,-117.03 5.0304,-26.205 9.1123,-54.061 2.8537,-80 -6.2111,-25.742 -20.403,-50.246 -38.725,-69.366 -17.536,-18.3 -40.94,-31.177 -64.752,-39.861 -24.094,-8.7863 -50.606,-14.084 -76.101,-11.312 -26.368,2.8673 -51.145,15.501 -74.353,28.343 -13.997,7.7451 -26.902,17.692 -38.302,28.914 -22.109,21.764 -57.235,73.392 -57.235,73.392 z" />
    </g>
    <path
       id="path28"
       d="M 283.98967,33.524537 C 263.01287,16.453429 235.15544,7.050186 205.57132,7.050186 c -29.60152,0 -57.45461,9.403243 -78.41836,26.474351 -21.15948,17.223334 -32.815681,40.170381 -32.815681,64.626634 0,23.338489 10.621061,45.306939 29.988611,62.234519 -0.34794,0.78723 -0.6263,1.6136 -0.80462,2.47912 l -6.36307,31.29775 c -0.75678,3.71868 0.26096,5.93683 1.24391,7.14594 1.13953,1.39179 2.82706,2.16162 4.75382,2.16162 1.45702,0 3.01843,-0.43058 4.64943,-1.27435 l 37.00842,-19.22838 c 12.81311,4.12317 26.58743,6.28913 40.76623,6.28913 29.60152,0 57.45461,-9.40324 78.41836,-26.47435 21.15948,-17.21898 32.81567,-40.17039 32.81567,-64.626649 0,-24.456254 -11.65184,-47.40765 -32.81567,-64.626635"
       style="fill:#ffffff;stroke:#000000;stroke-width:8.7489996;stroke-miterlimit:4;stroke-dasharray:none" />
    <text
       id="text881"
       y="67.688118"
       x="207.4119"
       style="font-style:normal;font-weight:normal;font-size:50.79999924px;line-height:1.25;font-family:sans-serif;text-align:center;letter-spacing:0px;word-spacing:0px;text-anchor:middle;fill:#000000;fill-opacity:1;stroke:none;stroke-width:0.26458332"
       xml:space="preserve"><tspan
         style="font-style:normal;font-variant:normal;font-weight:bold;font-stretch:normal;font-family:Roboto;-inkscape-font-specification:'Roboto Bold';stroke-width:0.26458332"
         y="67.688118"
         x="207.4119"
         id="tspan879">sms</tspan></text>
    <text
       id="text881-4"
       y="144.61539"
       x="205.49701"
       style="font-style:normal;font-weight:normal;font-size:50.79999924px;line-height:1.25;font-family:sans-serif;text-align:center;letter-spacing:0px;word-spacing:0px;text-anchor:middle;fill:#000000;fill-opacity:1;stroke:none;stroke-width:0.26458332"
       xml:space="preserve"><tspan
         style="font-style:normal;font-variant:normal;font-weight:bold;font-stretch:normal;font-family:Roboto;-inkscape-font-specification:'Roboto Bold';stroke-width:0.26458332"
         y="144.61539"
         x="205.49701"
         id="tspan879-5">you</tspan></text>
    <text
       id="text881-0"
       y="110.98788"
       x="202.28976"
       style="font-style:normal;font-weight:normal;font-size:50.79999924px;line-height:1.25;font-family:sans-serif;text-align:center;letter-spacing:0px;word-spacing:0px;text-anchor:middle;fill:#000000;fill-opacity:1;stroke:none;stroke-width:0.26458332"
       xml:space="preserve"><tspan
         style="font-style:normal;font-variant:normal;font-weight:bold;font-stretch:normal;font-family:Roboto;-inkscape-font-specification:'Roboto Bold';stroke-width:0.26458332"
         y="110.98788"
         x="202.28976"
         id="tspan879-57">4</tspan></text>
  </g>
</svg>
